<?xml version="1.0" encoding="utf-8"?>
<!-- Generator: Adobe Illustrator 18.1.1, SVG Export Plug-In . SVG Version: 6.00 Build 0)  -->
<!DOCTYPE svg PUBLIC "-//W3C//DTD SVG 1.1//EN" "http://www.w3.org/Graphics/SVG/1.1/DTD/svg11.dtd">
<svg version="1.1" id="Layer_1" xmlns="http://www.w3.org/2000/svg" xmlns:xlink="http://www.w3.org/1999/xlink" x="0px" y="0px"
	 viewBox="0 0 502.6 502.2" enable-background="new 0 0 502.6 502.2" xml:space="preserve">
<path fill="#FFFFFF" d="M498,430.1l-87.7-87.6c22.2-34.6,35.3-75.7,35.3-119.9C445.6,99.6,345.9,0,222.8,0C99.8,0,0,99.6,0,222.6
	c0,122.9,99.8,222.6,222.8,222.6c44.2,0,85.4-13,120-35.3l87.7,87.6c6.2,6.2,16.3,6.2,22.5,0l45-45
	C504.1,446.4,504.1,436.3,498,430.1z M222.8,381.6c-87.7,0-159.1-71.3-159.1-159c0-87.7,71.4-159,159.1-159
	c87.7,0,159.1,71.3,159.1,159C381.9,310.2,310.5,381.6,222.8,381.6z"/>
</svg>
